dostoevski	18189
batyushkov	392
belyi	391
gogol	1600
hlebnikov	4835
homerus	5347
ivanov	3334
leskov	2688
mamleev	2316
mandelstam	19433
#pushkin	663038
remizov	2382
saltykov-shchedrin	26036
soft	950
swassjan	1025
tolstoy	130258
18vek/bogdanovich	189
18vek/derzhavin	22107
18vek/dmitriev	3644
18vek/fonvizin	1385
18vek/hemnitser	549
18vek/heraskov	642
18vek/kantemir	2142
18vek/kapnist	397
18vek/karamzin	22339
18vek/knyazhnin	314
18vek/krylov	42390
18vek/letters_rus_writers	483
18vek/lomonosov	13620
18vek/lvov	1016
18vek/maykov	631
18vek/muravjov	167
18vek/novikov	183
18vek/poety1790_1810	1215
18vek/poety18veka	1202
18vek/radishchev	2838
18vek/sumarokov	2607
18vek/trediakovsky	790
19vek/delvig	173
19vek/gnedich	116
19vek/merzlyakov	209
19vek/narezhny	27
19vek/vyazemsky	1616
19vek/zhukovsky	24316
